<?xml version="1.0" encoding="utf-8"?>
<!-- Generator: Adobe Illustrator 23.0.1, SVG Export Plug-In . SVG Version: 6.00 Build 0)  -->
<svg version="1.1"
	 id="svg3336" xmlns:cc="http://creativecommons.org/ns#" xmlns:dc="http://purl.org/dc/elements/1.1/" xmlns:rdf="http://www.w3.org/1999/02/22-rdf-syntax-ns#" xmlns:svg="http://www.w3.org/2000/svg"
	 xmlns="http://www.w3.org/2000/svg" xmlns:xlink="http://www.w3.org/1999/xlink" x="0px" y="0px" viewBox="0 0 805.7 344.7"
	 style="enable-background:new 0 0 805.7 344.7;" xml:space="preserve">
<style type="text/css">
	.st0{fill:none;}
	.st1{fill:#FFFFFF;}
</style>
<rect x="-738.5" y="-123.4" class="st0" width="1763.2" height="1322.4"/>
<g id="g3343" transform="matrix(2.2262716,0,0,-2.2262716,-893.46207,1083.4685)">
	<path id="path3345" class="st1" d="M693.7,417.6l-0.6-7.7h-3.2c-5,0-7.6-4-7.6-7.9v-17.4h-8.9v33h8.4l0.2-4.1
		c1.8,2.8,4.9,4.1,8.7,4.1H693.7z M631.9,384.6H623v17.5c0,3.7-0.3,8.3-5.5,8.3c-5,0-6.9-3.6-6.9-7.7v-18h-9v33h8.3l0.2-4.2
		c1.8,2.8,5.1,5,9.9,5c9,0,11.8-6.4,11.8-13.1L631.9,384.6L631.9,384.6z M597.7,392.3l-0.6-7.5c-2.1-0.6-4-0.8-6.3-0.8
		c-8.4,0-10.8,3.9-10.8,11.6v31.3h8.9v-9.3h8.9l-0.6-7.7h-8.3v-13.6c0-3.1,0.9-4.8,4-4.8C594.3,391.5,595.8,391.6,597.7,392.3
		 M577,417.6l-0.7-7.7h-2.4c-5,0-7.5-4-7.5-7.9v-17.4h-8.9v33h8.5l0.2-4.1c1.8,2.8,4.9,4.1,8.7,4.1H577L577,417.6z M517.2,388.2
		c-6.1-3.2-12.1-5.1-20.1-4.9c-14.8,0.5-25.5,9.6-25.5,25.2c0,15.5,10.8,25.3,25.5,25.6c7.5,0.1,14.1-1.8,19.3-6.4l-6.3-6.4
		c-3.2,2.8-8,4.4-13.6,4.1c-9.3-0.4-14.8-7.2-15-16.4c-0.1-10,6-16.9,15.6-17.2c4.5-0.1,7.8,0.5,10.6,1.8v10.2h-10l0.7,8.4h18.7
		L517.2,388.2L517.2,388.2z M669.4,397.9h-24.5c0.7-4.2,4-6.8,8.1-6.9c4-0.1,6.3,1.1,9.2,4.1l5.8-4.4c-4.1-5.1-9.1-7-14.8-7
		c-10,0-17.4,7-17.4,17.3c0,10.4,7.4,17.3,17,17.3c10.6,0,16.4-6.4,16.4-17.8v-2.6H669.4z M660.4,404.9c-0.3,4.2-3.4,6.8-7.7,6.6
		c-4.3-0.2-7.2-3-7.8-6.6H660.4z M551.8,406.2v-21.6h-7.9l-0.2,3.3c-2.4-3-6.3-4.1-10.4-4.1c-6.1,0-11.8,3-11.9,10
		c-0.2,11,12.3,11.7,20.2,11.7h1.6v0.4c0,3.6-2.4,5.6-6.9,5.6c-3.2,0-6.4-1.3-8.8-3.5l-5.1,5.2c4.7,3.8,9.5,5.2,14.7,5.2
		C547.3,418.4,551.8,413.7,551.8,406.2 M543.2,399H542c-4.2,0-11.6-0.2-11.6-4.6c0-6.2,12.9-4.2,12.9,3.3L543.2,399L543.2,399z
		 M686.7,388.4c0,2.1,1.6,3.7,3.6,3.7s3.6-1.6,3.6-3.7s-1.6-3.7-3.6-3.7C688.3,384.7,686.7,386.3,686.7,388.4 M690.4,384
		c2.4,0,4.5,1.9,4.5,4.5s-2.1,4.4-4.5,4.4s-4.5-1.9-4.5-4.4C685.8,385.8,687.9,384,690.4,384 M689.4,388.1h0.9l1.3-2.2h0.9l-1.5,2.3
		c0.8,0.1,1.3,0.5,1.3,1.4c0,1-0.6,1.5-1.8,1.5h-2V386h0.8L689.4,388.1L689.4,388.1z M689.4,388.7v1.6h1.1c0.5,0,1.1-0.1,1.1-0.8
		c0-0.8-0.6-0.8-1.2-0.8L689.4,388.7L689.4,388.7z"/>
</g>
</svg>
