<?xml version="1.0" encoding="utf-8"?>
<!-- Generator: Adobe Illustrator 23.0.1, SVG Export Plug-In . SVG Version: 6.00 Build 0)  -->
<svg version="1.1" id="Layer_1" xmlns="http://www.w3.org/2000/svg" xmlns:xlink="http://www.w3.org/1999/xlink" x="0px" y="0px"
	 viewBox="0 0 800 120" style="enable-background:new 0 0 800 120;" xml:space="preserve">
<style type="text/css">
	.st0{fill:#595A5A;}
	.st1{fill:#80BC00;}
</style>
<g>
	<g>
		<path class="st0" d="M500.1,95.6c3.1,0,5.5,2.4,5.5,5.5c0,3.1-2.4,5.4-5.5,5.4c-3.1,0-5.5-2.4-5.5-5.4
			C494.6,98,497,95.6,500.1,95.6z"/>
		<g>
			<path class="st0" d="M771.9,25.4c4.4,0,8,3.6,8,8c0,4.4-3.6,8-8,8c-4.4,0-8-3.6-8-8C763.9,29,767.5,25.4,771.9,25.4z M771.9,39.9
				c3.6,0,6.6-2.9,6.6-6.6c0-3.6-2.9-6.6-6.6-6.6c-3.6,0-6.6,2.9-6.6,6.6C765.3,37,768.2,39.9,771.9,39.9z M768.8,28.8h3.5
				c2.2,0,3.2,1,3.2,2.7c0,1.6-0.9,2.4-2.2,2.5l2.4,3.9H774l-2.3-3.7h-1.2v3.7h-1.7V28.8z M770.5,32.7h1.2c1,0,2.2-0.1,2.2-1.3
				c0-1.2-1.1-1.3-2.2-1.3h-1.2V32.7z"/>
		</g>
		<path class="st0" d="M65.1,42.7c-3.1-4.3-8.5-6.4-14.1-6.4c-6.6,0-13.2,3-13.2,10.3c0,16.1,38.2,6.9,38.2,35.6
			C76,99.5,62.4,108,46.6,108c-10,0-19.8-3.1-26.4-10.9L31,86.6c3.5,5.3,9.5,8.4,15.9,8.4C53.5,95,61,91.4,61,84
			c0-17.6-38.2-7.5-38.2-36.3c0-16.6,14.8-24.3,29.7-24.3c8.4,0,16.8,2.4,23.1,8.3L65.1,42.7z"/>
		<path class="st0" d="M150,76.3c0,19.4-14,31.6-32.4,31.6c-18.4,0-32.4-12.2-32.4-31.6V25.4h14.3v50.5c0,8,4.3,18.4,18.1,18.4
			c13.8,0,18.1-10.5,18.1-18.4V25.4H150V76.3z"/>
		<path class="st0" d="M160.4,25.4h27.1c15.6,0,29.7,5.5,29.7,23.3c0,20.2-15.1,23.9-32.2,23.9h-10.2v33.3h-14.3V25.4z M183.4,60.3
			c8.2,0,18.8-0.4,18.8-11.4c0-9.9-9.4-11.3-17.2-11.3h-10.2v22.6H183.4z"/>
		<path class="st0" d="M222.7,25.4h27.1c15.6,0,29.7,5.5,29.7,23.3c0,20.2-15.1,23.9-32.2,23.9h-10.2v33.3h-14.3V25.4z M245.7,60.3
			c8.2,0,18.8-0.4,18.8-11.4c0-9.9-9.4-11.3-17.2-11.3h-10.2v22.6H245.7z"/>
		<path class="st0" d="M324.8,23.4c25.1-0.5,42.9,16.4,42.9,42.2c0,25.1-17.7,42-42.9,42.4c-24.8,0-42.5-16.8-42.5-42
			C282.3,40.2,300,23.4,324.8,23.4z M324.9,95c16.7,0,27.7-12.7,27.7-29.9c0-16-11-28.8-27.7-28.8c-16.6,0-27.6,12.7-27.6,28.8
			C297.3,82.3,308.3,95,324.9,95z"/>
		<path class="st0" d="M375.9,25.4h28c15.5,0,30,5,30,23.1c0,11.6-6.7,20.1-18.7,21.8l21.4,35.6h-17.3l-18.7-34.1h-10.5v34.1h-14.3
			V25.4z M401.4,59.5c8.1,0,17.5-0.7,17.5-11.1c0-9.6-8.9-10.7-16.3-10.7h-12.4v21.8H401.4z"/>
		<path class="st0" d="M463.1,38.4h-24.7v-13h63.7v13h-24.7v67.5h-14.3V38.4z"/>
		<path class="st0" d="M581.1,93.3c-7.6,10.5-18.1,14.7-29.9,14.7c-24.6,0-41.6-17.7-41.6-42.3c0-24.6,17.1-42.3,41.6-42.3
			c10.9,0,20.7,3.6,27.7,12.6l-6.1,5.1c-5-7.5-13.5-10.9-21.6-10.9c-21,0-34.1,15.5-34.1,35.5c0,20,13.1,35.5,34.1,35.5
			c8.1,0,18.1-3.9,23.8-12.5L581.1,93.3z"/>
		<path class="st0" d="M675.5,25.4h11.3L716.1,93l29.3-67.5h10.7v80.5h-7.5V35h-0.2l-30.7,71h-3.3l-31.2-71H683v71h-7.5V25.4z"/>
	</g>
	<g>
		<path class="st1" d="M636,24.2v7.8c13.8,4.5,23.7,17.5,23.7,32.7c0,19-15.4,34.5-34.5,34.5c-19,0-34.5-15.4-34.5-34.5
			c0-15.2,9.9-28.2,23.6-32.7v-7.9c-18,4.8-31.2,21.1-31.2,40.6c0,23.2,18.8,42,42,42c23.2,0,42-18.8,42-42
			C667.3,45.3,654,29,636,24.2z"/>
		<path class="st1" d="M629.2,60.9c0,2.2-1.8,3.9-3.9,3.9l0,0c-2.2,0-3.9-1.8-3.9-3.9V12c0-2.2,1.8-3.9,3.9-3.9l0,0
			c2.2,0,3.9,1.8,3.9,3.9V60.9z"/>
	</g>
</g>
</svg>
